1 10 20
100 200 125
201 210 89
900 1000 174
233 809 171
263 657 145
313 509 144
431 120 144
709 854 153
989 896 174
23 953 179
647 235 144
532 61 144
450 329 134
454 426 116
906 216 179
772 264 171
911 116 179
703 458 171
811 8 171
726 941 179
981 592 179
472 496 142
15 262 128
368 922 179
596 237 144
123 843 171
349 892 179
646 33 144
466 402 134
803 528 171
305 410 144
407 165 144
694 14 145
254 958 179
664 985 179
835 83 171
113 96 119
462 508 142
83 88 111
272 273 30
342 313 144
735 895 179
657 762 171
473 686 145
560 226 144
185 335 144
663 251 145
535 585 137
539 886 179
191 400 144
300 211 128
88 594 144
513 76 144
82853 38102 351
4198 32785 308
47799 15331 324
34718 3815 311
67216 38333 340
77560 48469 351
57639 38020 340
57087 51609 340
7128 31792 308
97254 8317 351
4558 6558 262
5624 79697 351
85077 44442 351
5854 71667 340
51427 23559 324
67848 60550 335
3910 85814 351
29169 62623 340
4750 92543 351
40933 90568 351
46741 8362 324
25881 80371 351
83813 56680 351
73040 64731 325
88354 77560 338
14087 73710 340
81238 14842 351
19716 15365 279
1282 15464 276
47829 95364 351
42423 22738 324
48544 78308 351
76202 91602 351
44611 69053 340
74039 37547 340
7851 16208 276
435 12845 268
87180 80008 333
77254 40334 351
1311 58688 340
62112 11903 340
4051 65720 340
25883 65530 340
77162 7993 351
66310 19339 340
86259 52688 351
96070 5953 351
56561 52194 340
66968 54578 335
11960 43561 324
284636 344107 389
436797 826795 509
952051 344028 525
265582 753021 509
424075 107817 449
842367 493040 525
385665 77595 443
568399 440427 470
705974 680549 504
283814 496914 449
294022 455375 449
628046 628379 279
768849 121273 509
239043 624160 470
913830 282245 525
276927 881115 525
853401 221604 525
237287 703360 509
869172 404382 525
206316 44213 383
331582 489126 449
58029 259839 443
825277 975175 525
116683 474154 449
29889 726069 509
704599 501754 509
354467 590861 470
850943 373048 525
560978 319038 470
699720 744694 504
210242 793163 509
988290 878390 507
88170 571121 470
762450 472491 509
709490 541922 509
254740 614331 470
620126 72095 470
583436 169580 470
511788 100569 449
26338 181479 383
479352 363411 449
47414 505757 449
935551 481789 525
460834 486213 444
282991 551359 470
976182 299051 525
764146 466564 509
69915 494508 449
742697 160752 509
642932 283592 509