828582 941503 525
123535 829037 509
883281 996513 507
45231 371020 443
569419 585155 434
265380 742342 509
309937 971453 525
349019 910431 525
168165 240927 443
729823 798916 468
359000 553703 470
469603 904492 525
473499 662776 509
14886 931412 525
989253 990009 352
351345 773461 509
643142 947413 525
772323 990643 525
32420 418828 449
683921 694481 442
263075 589086 470
663022 938654 525
96753 149003 375
794666 875717 525
75171 934618 525
941082 988222 458
14751 870653 525
451694 747926 509
557826 782928 509
734763 864071 525
754783 931649 525
735631 780014 468
6985 786723 509
636843 938304 525
394180 768717 509
144300 729345 509
355183 461686 449
928874 960574 507
749301 926538 525
176974 464559 449
912977 974279 507
205191 766005 509
948122 997113 458
549723 847130 525
936951 974058 507
244123 978644 525
68361 690876 509
653960 935149 525
923097 947695 507
186307 798630 509
367393 415231 449
192630 218837 386
728624 917713 525
155624 182566 383
494564 593191 470
693152 804083 504
715238 732689 411
270052 487847 449
616056 743660 509
424326 985264 525
802493 997640 525
508489 886344 525
369584 536020 470
119666 881113 525
261373 801191 509
718715 950354 525
396884 949291 525
688544 711219 504
452593 722476 509
724756 997651 525
457812 500563 444
299374 661670 509
259840 842565 525
364866 598900 470
276356 622449 470
798703 805673 406
886999 970457 507
742127 877678 525
23204 316388 443
162762 533832 470
227184 685683 509
132876 655492 509
129277 130379 344
100871 193105 383
128372 384274 443
905892 954117 507
865868 955277 507
426958 618448 470
626271 742029 509
224955 422281 449
921048 921761 339
104010 921906 525
448624 645850 509
925907 973245 507
700427 924950 525
76398 309404 443
248912 257069 363
984529 994269 427
918765 929446 476
678302 719824 504
212887 894099 525
113821 714454 509
508989 640228 509
181229 990896 525
251200 612945 470
507843 528094 470
766687 795925 468
676718 679395 380
328000 373551 441
229666 283828 443
940161 968036 414
264999 342686 407
36356 363812 443
287752 834214 509
341410 767219 509
333644 512886 470
679255 842699 525
322791 759320 509
750902 938338 525
296190 628169 509
277378 740255 509
17578 646237 509
644512 992140 525
59645 674669 509
472254 713820 509
416452 850983 525
741779 862422 525
355225 431060 449
215050 861404 525
246768 492706 449
833911 904304 525
501315 889607 525
905422 910479 476
166587 704254 509
703419 851601 525
918170 962423 507
145722 329885 443
312301 647789 509
701654 969088 525
52810 357059 443
140689 907645 525
540402 707164 509
235621 802274 509
228780 505394 449
411024 791069 509
26268 891736 525
115374 799154 509
384237 772734 509
333353 701377 509
318105 938578 525
790292 982986 525
323047 999242 525
137056 576118 470
754042 939066 525
396243 700693 509
209202 344459 443
889970 977142 507
123930 383807 443
815483 989292 525
824325 839666 525
765895 944307 525
535538 728068 509
386818 590921 470
91057 597496 470
965035 970408 365
486204 582227 470
265004 868862 525
7802 137860 354
500907 640167 509
424345 527405 470
662968 785285 504
402264 955269 525
254171 735791 509
818487 959858 525
54386 106065 351
737571 754836 424
475631 638290 509
872491 957923 507
485009 957717 525
883022 906128 445
560880 849675 525
529582 718975 509
812450 987635 525
725625 952035 525
685136 831161 504
87890 289733 443
947987 969116 414
122561 834541 509
337372 600064 470
999980 999995 259
658705 664841 367
81858 391071 443
354281 557677 470
273912 340948 389
390002 816988 509
791337 986011 525
61676 577159 470
283198 639395 509
355045 770972 509
430407 665719 509