1 10 20
100 200 125
201 210 89
900 1000 174
280863 417116 449
851976 420686 525
82824 167030 383
924799 331388 525
272950 165710 443
184720 154603 383
236470 446356 449
50283 482283 449
843951 717309 525
370024 649507 509
579406 160963 470
887714 266518 525
631515 794459 504
910622 479426 525
803565 656352 504
810332 953074 525
879313 987408 507
611634 468374 470
24166 156192 383
433792 12945 449
385185 14046 443
999404 957751 458
274742 286133 389
725166 623070 509
464757 483608 413
883953 129731 525
748439 814796 468
496983 338248 449
439003 439168 294
190005 19398 383
316838 727811 509
407433 351447 436
443884 884657 525
856153 464009 525
304166 865016 525
26320 582772 470
351415 418606 449
499837 699522 509
511187 966416 525
756681 611219 509
631237 772974 504
400837 858693 525
368248 522289 470
940444 523588 525
140092 287107 443
812732 600098 509
430951 537391 470
655470 339569 509
386938 666471 509
343899 203430 443
566313 437706 470
794464 835624 468
357807 456919 449
684032 129046 509
155999 124015 375
299844 611236 470
334615 695794 509
853208 975319 507
357958 351618 379
659801 65254 509
28873 416296 449
98344 740751 509
31394 719671 509
573127 205532 470
860306 73943 525
717021 501922 509
604005 279499 470
506398 375017 449
484796 384821 449
655356 966676 525
38727 135044 354
336484 749594 509
863387 288219 525
402243 844431 525
445875 980462 525
852248 330229 525
521290 217133 470
472994 782812 509
646379 822741 504
793096 6329 509
930132 48720 525
353704 829479 509
490702 340474 449
746117 500593 509
494498 28932 449
165057 323561 443
438295 236956 449
581951 702295 509
529235 119776 470
462067 303688 449
448814 114656 449
327654 556607 470
326 884403 525
322514 602189 470
933505 402766 525
968720 696580 525
787664 478339 509
83196 979386 525
700211 17477 509
134921 751847 509
927743 544127 525
528170 679047 509
151039 658130 509
656703 514788 509
423530 90201 449
568630 357062 470
724629 304548 509
697680 145765 509
331838 592776 470
276308 115111 443
561467 591933 434
155823 846544 525
330738 939144 525
170250 800766 509
120313 64465 354
816114 56819 509
62140 199737 383
182204 530367 470
17038 670513 509
227018 794879 509
691909 552546 509
256673 917144 525
119583 941360 525
778790 880364 525
12614 575457 470
431198 502352 444
285835 388802 441
741150 551570 509
225133 786387 509
231137 549224 470
278577 726856 509
716061 211397 509
603976 558500 434
205665 170666 365
879704 590874 525
996267 167592 525
148302 118368 375
187154 702291 509
366100 858016 525
741671 719630 424
929010 407471 525
547229 551556 377
720948 348862 509
912322 102692 525
468102 548716 470
78200 811005 509
775824 303311 509
483557 292140 449
240696 969993 525
315897 35181 443
76483 297851 443
646803 328842 509
327035 519055 470
899382 449388 525
851910 412497 525
334036 862729 525
681531 173756 509
406814 811447 509
768476 383590 509
743063 729508 424
175179 96342 383
600032 325869 470
86656 620288 470
378158 164398 443
63862 590103 470
195355 391450 443
172598 860982 525
220216 240174 443
622940 729977 509
67814 894488 525
675082 281308 509
47331 385658 443
217150 677993 509
524490 238395 470
876237 156175 525
945200 306389 525
334300 387321 441
705066 3889 509
528109 589203 452
884507 777671 525
340373 954670 525
878472 548896 525
177507 71874 383
294876 585530 470
83628 372343 443
19252 754493 509
322655 866693 525
127837 548030 470
884094 697431 525
355053 54195 443
979509 772832 525
402983 207350 443
872439 342709 525
506127 268513 449
635692 889608 525
