1 10 20
100 200 125
201 210 89
900 1000 174
1 2 2
2 4 8
3 6 9
1 1 1
192135 685239 509
670735 918146 525
320288 352414 441
370417 219225 443
803516 38372 509
604674 959553 525
665454 754550 504
479899 615069 470
347286 315715 441
934335 346517 525
434892 981111 525
902141 229314 525
370860 675492 509
69794 178684 383
536115 633900 509
533384 739865 509
321473 255354 407
627708 995539 525
207965 471669 449
792310 151543 509
77497 198350 383
697013 908879 525
803612 987775 525
494480 181866 449
124496 932068 525
840011 833809 525
194985 942122 525
942369 805001 525
596034 958191 525
555881 345129 470
189557 654614 509
818360 158302 509
760403 720868 424
588774 545322 452
346248 748090 509
770067 522424 509
528719 486280 470
688361 138499 509
634700 370990 509
451222 416126 418
988258 253108 525
175882 963004 525
225681 131241 386
536880 460707 470
731390 701527 504
564334 621741 447
915459 472645 525
310531 755988 509
523137 700898 509
408317 600689 470
61033 411129 449
164729 290734 443
932304 933804 370
299357 889524 525
859804 990197 507
888301 24784 525
228107 218694 368
789212 125180 509
706251 835653 468
960421 476954 525
84987 508716 449
363690 592946 470
513940 962578 525
613418 628002 509
30015 786154 509
884395 792947 525
163641 135146 383
818949 564155 509
779284 279379 509
247329 608382 470
747725 320336 509
161464 107449 383
937907 126302 525
658704 327916 509
669382 776392 504
878032 889200 445
773383 192913 509
753591 92605 509
72699 94158 351
842409 535493 525
639463 165848 509
670171 189886 509
362578 437828 449
625976 262089 470
488004 896063 525
580524 31282 470
700798 414873 509
421459 70883 449
268767 621320 470
845585 465331 525
635688 473166 509
72548 736140 509
723854 499485 509
10382 474866 449
843642 212204 525
613187 607023 403
322038 184009 443
345552 839404 525
817105 379731 509
831119 173958 509
275445 736447 509
404958 130183 443
801748 563337 509
146955 836174 509
641410 519953 509
739646 970230 525
877088 374250 525
324102 763119 509
483901 141440 449
4773 808748 509
878309 998899 507
177518 51328 383
565570 108025 470
154306 186550 383
52542 964442 525
826944 460350 509
693914 478617 509
460129 12666 449
53123 986877 525
779377 510888 509
965232 651695 525
537850 136029 470
672232 987709 525
176439 203535 365
318998 923393 525
130765 121626 344
781517 328920 509
667400 16814 509
808958 699117 504
612556 786483 509
22618 388302 443
408072 176911 443
192241 342541 443
703989 686225 442
670308 955397 525
538165 528531 377
117760 131879 344
757054 613851 509
5966 169275 383
794862 871108 525
117919 859618 525
475742 643800 509
277105 466892 449
129029 760074 509
991885 626530 525
550279 186451 470
357403 790018 509
773340 859183 525
988668 636007 525
986073 457256 525
581252 338765 470
570135 696850 509
901372 49755 525
720611 610248 509
777953 574331 509
216238 178796 373
642340 556603 509
141134 189425 383
386892 684733 509
400627 502466 449
241356 216511 443
125641 578182 470
634702 615400 509
285001 239117 407
49216 220837 386
846039 236709 525
722027 929125 525
216610 804582 509
400182 397454 374
727946 356280 509
15454 210961 383
371445 745736 509
867018 466730 525
54065 118251 354
317039 738012 509
360781 962146 525
503351 731118 509
691282 114946 509
215556 38732 383
290229 290066 221
899835 268787 525
873893 52079 525
668204 850431 525
656189 231145 509
51071 933720 525
647671 419304 509
559082 213101 470
339495 628095 509
