621632 152967 470
31361 734812 509
675795 178368 509
717974 925409 525
609530 234145 470
236354 678031 509
727501 487125 509
232243 88322 443
867752 777578 525
853663 529324 525
136569 72889 354
354403 160634 443
938277 54849 525
299131 762832 509
736287 605932 509
178164 496560 449
283588 476788 449
132251 793974 509
687116 856759 525
170441 291049 443
38124 821314 509
102336 733014 509
962159 400579 525
482998 919168 525
84147 644151 509
283018 549096 470
293585 930919 525
910099 775543 525
415388 163393 449
265430 176919 443
232404 307698 407
250649 612468 470
168683 630393 509
860156 826316 525
275023 92770 443
575926 501184 470
450243 234171 449
262572 197487 443
810119 935969 525
165033 5189 383
139738 3523 354
639669 37546 509
956248 167082 525
250619 359524 441
479042 287859 449
51152 353015 443
717135 129761 509
458453 139266 449
31134 889700 525
497769 691897 509
507087 580620 470
464694 296183 449
830286 836698 419
551785 985963 525
894643 574233 525
152648 412502 449
356044 220302 443
282447 699864 509
163793 812463 509
134223 377970 443
969284 165319 525
783521 644226 504
940042 870870 507
692803 522340 509
674888 361227 509
439561 413896 418
837813 546921 525
129421 563177 470
785273 273028 509
101540 740653 509
500116 60758 449
13426 12429 276
24593 5702 282
825358 38852 509
949309 774854 525
652686 774161 504
37706 66252 340
683742 147169 509
570512 777477 509
822584 416969 509
915564 177714 525
748211 116840 509
431895 101349 449
322320 377834 441
855261 655645 525
415711 380855 449
869158 830772 525
245110 15521 443
911193 630926 525
827364 875226 525
563127 836497 509
911320 408962 525
645846 755648 504
476451 233091 449
972039 282674 525
342256 124017 443
712784 594646 509
579812 702292 509
664397 888858 525
896354 723258 525
252743 736162 509
777981 979440 525
701201 728811 504
78857 103194 341
492652 764257 509
108768 88115 354
385835 336238 441
264092 195574 443
88781 664479 509
718723 664527 504
817216 635760 504
212416 211503 311
20499 471917 449
453254 850570 525
363708 550525 470
69584 14749 340
351150 4811 443
312053 41717 443
465126 94784 449
541907 945842 525
746856 167631 509
545907 835276 509
6388 141983 354
253903 380240 441
971795 144592 525
751137 204850 509
188849 966711 525
872955 392618 525
329650 242495 407
671021 48128 509
181154 907921 525
718914 922638 525
143534 157897 383
859881 778586 525
695913 283927 509
294291 718643 509
707444 928356 525
502658 116242 449
256098 751802 509
157609 764362 509
114154 276741 443
379271 937645 525
2034 602607 470
893939 787699 525
826713 895356 525
269745 332866 407
970650 64271 525
898345 718831 525
420445 266764 449
759808 578625 509
965433 581746 525
474869 811750 509
522104 700885 509
764658 348894 509
945063 140572 525
517461 288031 470
926138 588251 525
461809 614079 470
902258 820136 525
113989 565866 470
930360 678598 525
185898 454048 449
376873 705165 509
203614 229086 386
12662 501894 449
563380 74211 470
504406 439859 444
697616 960607 525
174816 755570 509
799850 289627 509
390348 617709 470
826538 953426 525
879075 728102 525
382912 935955 525
27853 378219 443
324509 353324 441
318864 867330 525
252225 2631 443
412593 108501 449
517143 285724 470
719601 553742 509
355720 453104 449
986826 954355 458
268395 946762 525
332080 325668 353
362162 380744 423
211997 357417 443
223981 538517 470
523584 101803 470
965937 170673 525
791411 101692 509
107228 481199 449
171099 196734 365
573008 769620 509
591014 51162 470
16586 106139 351
130785 715334 509
191021 842562 525
721754 785139 468
